1_ano/2 semestre/LSD/LSD_Quartus/aula04/parte4/simulation/qsim/FreqDivider_Demo.msim.vcd
$comment
	File created using the following command:
		vcd file FreqDivider_Demo.msim.vcd -direction
$end
$date
	Tue Apr  2 10:23:31 2024
$end
$version
	Questa Intel Starter FPGA Edition Version 2021.2
$end
$timescale
	1ps
$end

$scope module freqdivider_vhd_vec_tst $end
$var wire 1 ! clkIn $end
$var wire 1 " clkOut $end
$var wire 1 # k [31] $end
$var wire 1 $ k [30] $end
$var wire 1 % k [29] $end
$var wire 1 & k [28] $end
$var wire 1 ' k [27] $end
$var wire 1 ( k [26] $end
$var wire 1 ) k [25] $end
$var wire 1 * k [24] $end
$var wire 1 + k [23] $end
$var wire 1 , k [22] $end
$var wire 1 - k [21] $end
$var wire 1 . k [20] $end
$var wire 1 / k [19] $end
$var wire 1 0 k [18] $end
$var wire 1 1 k [17] $end
$var wire 1 2 k [16] $end
$var wire 1 3 k [15] $end
$var wire 1 4 k [14] $end
$var wire 1 5 k [13] $end
$var wire 1 6 k [12] $end
$var wire 1 7 k [11] $end
$var wire 1 8 k [10] $end
$var wire 1 9 k [9] $end
$var wire 1 : k [8] $end
$var wire 1 ; k [7] $end
$var wire 1 < k [6] $end
$var wire 1 = k [5] $end
$var wire 1 > k [4] $end
$var wire 1 ? k [3] $end
$var wire 1 @ k [2] $end
$var wire 1 A k [1] $end
$var wire 1 B k [0] $end

$scope module i1 $end
$var wire 1 C gnd $end
$var wire 1 D vcc $end
$var wire 1 E unknown $end
$var wire 1 F devoe $end
$var wire 1 G devclrn $end
$var wire 1 H devpor $end
$var wire 1 I ww_devoe $end
$var wire 1 J ww_devclrn $end
$var wire 1 K ww_devpor $end
$var wire 1 L ww_clkIn $end
$var wire 1 M ww_k [31] $end
$var wire 1 N ww_k [30] $end
$var wire 1 O ww_k [29] $end
$var wire 1 P ww_k [28] $end
$var wire 1 Q ww_k [27] $end
$var wire 1 R ww_k [26] $end
$var wire 1 S ww_k [25] $end
$var wire 1 T ww_k [24] $end
$var wire 1 U ww_k [23] $end
$var wire 1 V ww_k [22] $end
$var wire 1 W ww_k [21] $end
$var wire 1 X ww_k [20] $end
$var wire 1 Y ww_k [19] $end
$var wire 1 Z ww_k [18] $end
$var wire 1 [ ww_k [17] $end
$var wire 1 \ ww_k [16] $end
$var wire 1 ] ww_k [15] $end
$var wire 1 ^ ww_k [14] $end
$var wire 1 _ ww_k [13] $end
$var wire 1 ` ww_k [12] $end
$var wire 1 a ww_k [11] $end
$var wire 1 b ww_k [10] $end
$var wire 1 c ww_k [9] $end
$var wire 1 d ww_k [8] $end
$var wire 1 e ww_k [7] $end
$var wire 1 f ww_k [6] $end
$var wire 1 g ww_k [5] $end
$var wire 1 h ww_k [4] $end
$var wire 1 i ww_k [3] $end
$var wire 1 j ww_k [2] $end
$var wire 1 k ww_k [1] $end
$var wire 1 l ww_k [0] $end
$var wire 1 m ww_clkOut $end
$var wire 1 n \clkIn~input_o\ $end
$var wire 1 o \k[0]~input_o\ $end
$var wire 1 p \k[1]~input_o\ $end
$var wire 1 q \k[2]~input_o\ $end
$var wire 1 r \k[3]~input_o\ $end
$var wire 1 s \k[4]~input_o\ $end
$var wire 1 t \k[5]~input_o\ $end
$var wire 1 u \k[6]~input_o\ $end
$var wire 1 v \k[7]~input_o\ $end
$var wire 1 w \k[8]~input_o\ $end
$var wire 1 x \k[9]~input_o\ $end
$var wire 1 y \k[10]~input_o\ $end
$var wire 1 z \k[11]~input_o\ $end
$var wire 1 { \k[12]~input_o\ $end
$var wire 1 | \k[13]~input_o\ $end
$var wire 1 } \k[14]~input_o\ $end
$var wire 1 ~ \k[15]~input_o\ $end
$var wire 1 !! \k[16]~input_o\ $end
$var wire 1 "! \k[17]~input_o\ $end
$var wire 1 #! \k[18]~input_o\ $end
$var wire 1 $! \k[19]~input_o\ $end
$var wire 1 %! \k[20]~input_o\ $end
$var wire 1 &! \k[21]~input_o\ $end
$var wire 1 '! \k[22]~input_o\ $end
$var wire 1 (! \k[23]~input_o\ $end
$var wire 1 )! \k[24]~input_o\ $end
$var wire 1 *! \k[25]~input_o\ $end
$var wire 1 +! \k[26]~input_o\ $end
$var wire 1 ,! \k[27]~input_o\ $end
$var wire 1 -! \k[28]~input_o\ $end
$var wire 1 .! \k[29]~input_o\ $end
$var wire 1 /! \k[30]~input_o\ $end
$var wire 1 0! \k[31]~input_o\ $end
$var wire 1 1! \clkOut~output_o\ $end
$upscope $end
$upscope $end
$enddefinitions $end
#0
$dumpvars
0!
0"
0C
1D
xE
1F
1G
1H
1I
1J
1K
0L
0m
0n
1o
0p
1q
0r
0s
0t
0u
0v
0w
0x
0y
0z
0{
0|
0}
0~
0!!
0"!
0#!
0$!
0%!
0&!
0'!
0(!
0)!
0*!
0+!
0,!
0-!
0.!
0/!
00!
01!
0#
0$
0%
0&
0'
0(
0)
0*
0+
0,
0-
0.
0/
00
01
02
03
04
05
06
07
08
09
0:
0;
0<
0=
0>
0?
1@
0A
1B
0M
0N
0O
0P
0Q
0R
0S
0T
0U
0V
0W
0X
0Y
0Z
0[
0\
0]
0^
0_
0`
0a
0b
0c
0d
0e
0f
0g
0h
0i
1j
0k
1l
$end
#50000
1!
1L
1n
#100000
0!
0L
0n
#150000
1!
1L
1n
#200000
0!
0L
0n
#250000
1!
1L
1n
#300000
0!
0L
0n
#350000
1!
1L
1n
#400000
0!
0L
0n
#450000
1!
1L
1n
#500000
0!
0L
0n
#550000
1!
1L
1n
#600000
0!
0L
0n
#650000
1!
1L
1n
#700000
0!
0L
0n
#750000
1!
1L
1n
#800000
0!
0L
0n
#850000
1!
1L
1n
#900000
0!
0L
0n
#950000
1!
1L
1n
